Classify direct, ambiguous, or no effect between exposure and network nodes. — nc_classify_effects • NetCoupler
…
library(dplyr)
metabolite_network <- simulated_data %>%
  select(matches("metabolite")) %>%
  nc_create_network()
multimodel_exposure <- simulated_data %>%
  mutate(Random = rnorm(nrow(.))) %>%
  nc_exposure_estimates(
    .graph = metabolite_network,
    .exposure = "exposure",
    .adjustment_vars = c("age", "Random"),
    .model_function = lm
   )

nc_filter_estimates(multimodel_exposure)
#> # A tibble: 114 x 10
#>    exposure index_node estimate std_error statistic   p_value conf_low conf_high
#>    <chr>    <chr>         <dbl>     <dbl>     <dbl>     <dbl>    <dbl>     <dbl>
#>  1 exposure metabolit…   -0.725    0.0157     -46.3 1.61e-318   -0.756    -0.694
#>  2 exposure metabolit…   -0.711    0.0253     -28.1 7.89e-147   -0.760    -0.661
#>  3 exposure metabolit…   -0.767    0.0140     -54.8 0.          -0.794    -0.739
#>  4 exposure metabolit…   -0.756    0.0242     -31.2 9.63e-175   -0.803    -0.708
#>  5 exposure metabolit…   -0.725    0.0258     -28.1 1.23e-146   -0.776    -0.674
#>  6 exposure metabolit…   -0.764    0.0155     -49.2 0.          -0.794    -0.734
#>  7 exposure metabolit…   -0.764    0.0247     -31.0 2.40e-172   -0.813    -0.716
#>  8 exposure metabolit…   -0.799    0.0139     -57.6 0.          -0.826    -0.771
#>  9 exposure metabolit…    0.284    0.0256      11.1 1.02e- 27    0.234     0.334
#> 10 exposure metabolit…    0.227    0.0156      14.6 1.04e- 45    0.197     0.258
#> # … with 104 more rows, and 2 more variables: adjusted_vars <chr>,
#> #   neighbour_vars <chr>
…
library(survival)
multimodel_outcome <- simulated_data %>%
  mutate(Random = rnorm(nrow(.))) %>%
  nc_outcome_estimates(
    .graph = metabolite_network,
    .outcome = "survival::Surv(survival_time, case_status)",
    .adjustment_vars = c("age", "Random"),
    .model_function = survival::coxph,
    .exponentiate = TRUE
   )

nc_filter_estimates(multimodel_outcome)
#> # A tibble: 114 x 10
#>    outcome index_node estimate std_error statistic  p_value conf_low conf_high
#>    <chr>   <chr>         <dbl>     <dbl>     <dbl>    <dbl>    <dbl>     <dbl>
#>  1 surviv… metabolit…    0.847    0.103     -1.61  1.07e- 1    0.692     1.04 
#>  2 surviv… metabolit…    0.811    0.100     -2.09  3.68e- 2    0.666     0.987
#>  3 surviv… metabolit…    0.775    0.0978    -2.61  8.99e- 3    0.640     0.938
#>  4 surviv… metabolit…    0.753    0.0960    -2.96  3.10e- 3    0.624     0.909
#>  5 surviv… metabolit…    0.631    0.0847    -5.45  5.14e- 8    0.534     0.744
#>  6 surviv… metabolit…    0.591    0.0805    -6.53  6.44e-11    0.505     0.692
#>  7 surviv… metabolit…    0.556    0.0763    -7.71  1.27e-14    0.478     0.645
#>  8 surviv… metabolit…    0.530    0.0729    -8.73  2.65e-18    0.459     0.611
#>  9 surviv… metabolit…    1.13     0.102      1.20  2.29e- 1    0.926     1.38 
#> 10 surviv… metabolit…    1.10     0.109      0.887 3.75e- 1    0.890     1.36 
#> # … with 104 more rows, and 2 more variables: adjusted_vars <chr>,
#> #   neighbour_vars <chr>
…
