Compute model estimates between an external (exposure or outcome) variable and a network. — nc_estimate_links • NetCoupler
…
# Get results of all models used prior to classification
attr(results, "all_models_df")
#> # A tibble: 353 × 10
#>    exposure index_node   model_id    term  estimate std_error statistic  p_value
#>    <chr>    <chr>        <chr>       <chr>    <dbl>     <dbl>     <dbl>    <dbl>
#>  1 exposure metabolite_1 fe2b8fdf75… (Int…  0.00108    0.0219    0.0493 9.61e- 1
#>  2 exposure metabolite_1 fe2b8fdf75… expo…  0.181      0.0221    8.18   5.05e-16
#>  3 exposure metabolite_1 fe2b8fdf75… meta…  0.275      0.0219   12.5    1.35e-34
#>  4 exposure metabolite_1 d6e3403a88… (Int…  0.00330    0.0229    0.144  8.86e- 1
#>  5 exposure metabolite_1 d6e3403a88… expo…  0.166      0.0243    6.85   9.97e-12
#>  6 exposure metabolite_1 d6e3403a88… meta…  0.0195     0.0241    0.811  4.18e- 1
#>  7 exposure metabolite_1 7dad77d9a9… (Int…  0.00260    0.0222    0.117  9.07e- 1
#>  8 exposure metabolite_1 7dad77d9a9… expo…  0.171      0.0225    7.60   4.53e-14
#>  9 exposure metabolite_1 7dad77d9a9… meta…  0.187      0.0223    8.38   1.00e-16
#> 10 exposure metabolite_1 7351d4f8fc… (Int… -0.00278    0.0223   -0.125  9.01e- 1
#> # … with 343 more rows, and 2 more variables: network_neighbours <list>,
#> #   adjusted_vars <chr>
…
