Introduction to NetCoupler • NetCoupler
…
standardized_data <- simulated_data %>%
    nc_standardize(vars(starts_with("metabolite")))

Then estimate the outcome or exposure:

outcome_estimates <- standardized_data %>%
    nc_outcome_estimates(
        .graph = metabolite_network,
        .outcome = "survival::Surv(survival_time, case_status)",
        .adjustment_vars = "age",
        .model_function = survival::coxph
    )

outcome_estimates
#> # A tibble: 788 x 11
#>    outcome index_node model_id term  estimate std_error statistic  p_value
#>    <chr>   <chr>      <chr>    <chr>    <dbl>     <dbl>     <dbl>    <dbl>
#>  1 surviv… metabolit… 3db239c… meta…  -0.224    0.0717      -3.12 1.80e- 3
#>  2 surviv… metabolit… 3db239c… age     0.0103   0.00714      1.44 1.51e- 1
#>  3 surviv… metabolit… 3db239c… meta…  -0.471    0.0699      -6.74 1.55e-11
#>  4 surviv… metabolit… d14e40c… meta…   0.597    0.0823       7.26 3.98e-13
#>  5 surviv… metabolit… d14e40c… age     0.0105   0.00718      1.47 1.42e- 1
#>  6 surviv… metabolit… d14e40c… meta…  -0.556    0.0620      -8.96 3.13e-19
#>  7 surviv… metabolit… 7ccf9f1… meta…   0.379    0.0773       4.90 9.53e- 7
#>  8 surviv… metabolit… 7ccf9f1… age     0.0144   0.00731      1.96 4.95e- 2
#>  9 surviv… metabolit… 7ccf9f1… meta…  -0.568    0.0620      -9.16 4.97e-20
#> 10 surviv… metabolit… 419ed36… meta…  -0.160    0.0684      -2.34 1.95e- 2
#> # … with 778 more rows, and 3 more variables: conf_low <dbl>, conf_high <dbl>,
#> #   adjusted_vars <chr>

exposure_estimates <- standardized_data %>%
    nc_exposure_estimates(
        .graph = metabolite_network,
        .exposure = "exposure",
        .adjustment_vars = "age",
        .model_function = lm
    )

exposure_estimates
#> # A tibble: 976 x 16
#>    exposure index_node model_id term  estimate std_error statistic p_value
#>    <chr>    <chr>      <chr>    <chr>    <dbl>     <dbl>     <dbl>   <dbl>
#>  1 exposure metabolit… 424e0e8… (Int…  6.14e-4   0.0719    0.00855 9.93e-1
#>  2 exposure metabolit… 424e0e8… meta…  7.50e-2   0.0155    4.84    1.39e-6
#>  3 exposure metabolit… 424e0e8… age    4.79e-4   0.00142   0.338   7.36e-1
#>  4 exposure metabolit… 424e0e8… expo… -7.57e-1   0.0156  -48.4     0.     
#>  5 exposure metabolit… 3c753f3… (Int…  1.08e-3   0.0723    0.0149  9.88e-1
#>  6 exposure metabolit… 3c753f3… meta… -1.26e-2   0.0139   -0.906   3.65e-1
#>  7 exposure metabolit… 3c753f3… age    4.92e-4   0.00143   0.345   7.30e-1
#>  8 exposure metabolit… 3c753f3… expo… -7.91e-1   0.0140  -56.6     0.     
#>  9 exposure metabolit… aa246dd… (Int…  1.98e-4   0.0723    0.00273 9.98e-1
#> 10 exposure metabolit… aa246dd… meta…  1.53e-2   0.0139    1.10    2.70e-1
#> # … with 966 more rows, and 8 more variables: conf_low <dbl>, conf_high <dbl>,
#> #   df <int>, logLik <dbl>, AIC <dbl>, BIC <dbl>, sample_size <int>,
#> #   adjusted_vars <chr>
…
